#!/bin/bash
# vim: set noexpandtab:

# Copyright 2019-2020 Holger Levsen <holger@layer-acht.org>
# released under the GPLv2

###################################################################
###								###
### this is running on coccia.debian.org via holger's crontab:	###
###								###
### # m h  dom mon dow   command				###
### 0 */2 * * *  ~holger/rsync2buildinfos.debian.net		###
###								###
###################################################################

YEAR="$(date -u +%Y)"
MONTH="$(date -u +%m)"
DAY="$(date -u +%d)"
TARGETHOST="ionos7-amd64.debian.net"
TARGETDIR="/var/lib/jenkins/userContent/reproducible/debian/ftp-master.debian.org/buildinfo"
SOURCEDIR="/srv/ftp-master.debian.org/buildinfo/"
LOG="$HOME/rsync-$YEAR-$MONTH-$DAY.log"

rsync_day(){
	if [ -d $YEAR/$MONTH/$DAY ] ; then
		echo "$(date -u) - rsyncing .buildinfo files for $YEAR/$MONTH/$DAY..." >> $LOG
		rsync -e ssh -av $YEAR/$MONTH/$DAY jenkins@$TARGETHOST:$TARGETDIR/$YEAR/$MONTH/ >> $LOG 2>&1
	else
		echo "$(date -u) - $YEAR/$MONTH/$DAY does not exist, skipping." >> $LOG
	fi
}

rsync_month(){
	if [ -d $YEAR/$MONTH ] ; then
		echo "$(date -u) - rsyncing .buildinfo files for $YEAR/$MONTH..." >> $LOG
		rsync -e ssh -av $YEAR/$MONTH jenkins@$TARGETHOST:$TARGETDIR/$YEAR/ >> $LOG 2>&1
	else
		echo "$(date -u) - $YEAR/$MONTH does not exist, skipping." >> $LOG
	fi
}

rsync_year(){
	local YEAR=$1
	if [ -d $YEAR ] ; then
		echo "$(date -u) - rsyncing .buildinfo files for $YEAR..." >> $LOG
		rsync -e ssh -av $YEAR jenkins@$TARGETHOST:$TARGETDIR/ >> $LOG 2>&1
	else
		echo "$(date -u) - $YEAR does not exist, skipping." >> $LOG
	fi
}

#
# main
#
cd $SOURCEDIR
if [ -n "$1" ] ; then
	# manual mode to rsync everything
	LOG=/dev/stdout
	for i in $(seq 2016 $YEAR) ; do
		rsync_year $i
	done
else
	if [ "$DAY" = "01" ] && [ "$MONTH" = "01" ] ; then
		# this needs to be done first to create the year directory
		# even though we do this several times a day
		# it's ok, because the year is young :)
		rsync_year $YEAR
	elif [ "$DAY" = "01" ] ; then
		# see comment above
		rsync_month
	else
		rsync_day
	fi
	# rsync yesterday, always
	YEAR="$(date -u -d '1 day ago' +%Y)"
	MONTH="$(date -u -d '1 day ago' +%m)"
	DAY="$(date -u -d '1 day ago' +%d)"
	rsync_day
	echo "======================================================================" >> $LOG
	# output yesterdays logfile if this hasn't been done yet
	OLDLOG="$HOME/rsync-$YEAR-$MONTH-$DAY.log"
	if [ -f "$OLDLOG" ] ; then
		cat $OLDLOG
		echo "$(date -u) - $OLDLOG flushed via cron output." >> $LOG
		rm $OLDLOG
	fi
fi
